1704368781-1-boot-daedalus.tar.gz
1704368797-1-daedalus-rootfs-arm64-pbpro-devuan-nomodules-r1704357239.tar.gz
1704369074-1-modules-6.1.50-current-rockchip64-r1704368958-kernel-bak.tar.gz
1704622503-1-xaa
1704622503-2-xab
1704622503-3-xac
1704622503-4-xad
1704622503-5-xae
daedalus-rootfs-arm64-pbpro-devuan-nomodules-r1704357239.tar.gz
list.md5
listoffilecontent.txt
